<?xml version="1.0" encoding="UTF-8"?>
<svg width="250px" height="248px" viewBox="0 0 250 248" version="1.1" xmlns="http://www.w3.org/2000/svg" xmlns:xlink="http://www.w3.org/1999/xlink">
    <!-- Generator: Sketch 41.2 (35397) - http://www.bohemiancoding.com/sketch -->
    <title>hammer</title>
    <desc>Created with Sketch.</desc>
    <defs></defs>
    <g id="Symbols" stroke="none" stroke-width="1" fill="none" fill-rule="evenodd">
        <g id="hammer" fill="#FFFFFF">
            <g id="Shape">
                <path d="M101.869877,155.98668 C105.394467,159.875 111.463115,160.172131 115.346311,156.651639 L125.355533,147.566598 C129.242828,144.042008 129.545082,137.981557 126.012295,134.093238 L79.5471311,82.8463115 C76.022541,78.9579918 69.9579918,78.664959 66.0696721,82.1895492 L56.0604508,91.2704918 C52.1721311,94.7991803 51.869877,100.85041 55.3995902,104.73873 L101.869877,155.98668 Z"></path>
                <path d="M189.043033,76.9364754 C192.571721,80.8247951 198.632172,81.1219262 202.52459,77.602459 L212.53791,68.5122951 C216.422131,65.0010246 216.719262,58.932377 213.190574,55.0348361 L166.72541,3.79303279 C163.20082,-0.0911885246 157.13627,-0.389344262 153.248975,3.13217213 L143.23873,12.2182377 C139.35041,15.7428279 139.053279,21.8114754 142.577869,25.6997951 L189.043033,76.9364754 Z"></path>
                <path d="M248.283811,183.689549 L179.974385,108.365779 C178.210041,106.422131 175.175205,106.272541 173.235656,108.03791 L172.057377,109.105533 L162.341189,98.3821721 L184.125,78.6178279 L140.427254,30.4272541 L84.4692623,81.1659836 L128.172131,129.360656 L149.964139,109.60041 L159.689549,120.327869 L158.51127,121.391393 C156.5625,123.155738 156.418033,126.185451 158.182377,128.134221 L226.496926,203.453893 C228.253074,205.397541 231.286885,205.55123 233.230533,203.786885 L247.95082,190.432377 C249.895492,188.668033 250.045082,185.63832 248.283811,183.689549 Z"></path>
                <path d="M157.398566,217.667008 L15.2848361,217.667008 C7.10963115,217.667008 0.480532787,224.292008 0.480532787,232.471311 C0.480532787,240.650615 7.10963115,247.275615 15.2848361,247.275615 L157.39959,247.275615 C165.574795,247.275615 172.203893,240.650615 172.203893,232.471311 C172.202869,224.292008 165.57377,217.667008 157.398566,217.667008 Z"></path>
            </g>
        </g>
    </g>
</svg>