<?xml version="1.0" encoding="UTF-8"?>
<svg width="250px" height="160px" viewBox="0 0 250 160" version="1.1" xmlns="http://www.w3.org/2000/svg" xmlns:xlink="http://www.w3.org/1999/xlink">
    <!-- Generator: Sketch 41.2 (35397) - http://www.bohemiancoding.com/sketch -->
    <title>handshake</title>
    <desc>Created with Sketch.</desc>
    <defs></defs>
    <g id="Symbols" stroke="none" stroke-width="1" fill="none" fill-rule="evenodd">
        <g id="handshake" fill="#FFFFFF">
            <g id="Shape">
                <path d="M209.19125,86.29 L184.6625,37.1075 C184.385,36.56375 184.0175,36.0575 183.55,35.63375 C183.08125,35.21125 182.55625,34.90125 182.00875,34.705 L153.24625,24.3675 C151.2425,23.6475 149.09625,23.26125 146.8625,23.28125 C144.63125,23.305 142.495,23.73375 140.50125,24.4925 L118.6775,32.8175 C117.14125,33.405 115.61625,34.08 114.1125,34.84875 C113.61,35.10875 113.11625,35.39 112.625,35.66625 C110.9775,34.77375 109.2575,33.9875 107.4625,33.31875 C101.7375,31.17875 95.875,30.45625 90.20125,30.94125 L75.51875,32.20125 C74.88,32.25625 74.235,32.45375 73.6325,32.8075 C73.03,33.1625 72.5325,33.64125 72.14125,34.195 L39.08125,81.25875 C38.4,82.225 38.03625,83.455 38.1475,84.75625 C38.25625,86.0575 38.81625,87.19875 39.64375,88.01875 L54.02375,102.27 C53.235,103.71375 52.735,105.335 52.62,107.07 C52.4125,110.1875 53.43625,113.1975 55.49375,115.54625 C57.55375,117.89375 60.4025,119.3 63.5225,119.50375 C63.68875,119.515 63.8575,119.515 64.02625,119.52125 C62.7475,123.655 63.79375,128.35 67.125,131.5025 C69.11875,133.39 71.675,134.49 74.39125,134.66625 C72.64125,139.00375 73.5875,144.17625 77.16375,147.56 C79.345,149.6275 82.1975,150.76375 85.20375,150.76375 C88.33375,150.76375 91.25375,149.54125 93.45875,147.33375 C94.27875,152.63125 98.68,156.855 104.24625,157.21875 C104.5025,157.23625 104.765,157.2475 105.02125,157.2475 C106.44375,157.2475 107.80625,156.97875 109.07375,156.50625 C111.14375,157.88625 113.61125,158.64625 116.2375,158.54 C119.465,158.405 122.36,156.98125 124.525,154.75375 L116.61625,146.8625 C116.635,146.68 116.66875,146.505 116.67625,146.31625 C116.77875,144.76625 116.56625,143.26625 116.105,141.8725 L132.29125,158.0175 C134.33375,158.84875 136.55625,159.265 138.87125,159.17125 C143.50375,158.9825 147.63,156.795 150.5525,153.41 L152.1725,151.53125 C152.3225,151.35375 152.4375,151.15375 152.5375,150.93875 L127.61625,126.08625 C126.97375,125.45 126.9225,124.39125 127.4925,123.725 C128.06375,123.0625 129.05375,123.04 129.69125,123.67625 L159.33,153.2325 C160.945,153.79875 162.67375,154.075 164.47,154.00125 C168.5425,153.835 172.17625,151.91125 174.745,148.93 L178.65875,144.4 C179.55625,143.355 180.09125,141.945 180.04125,140.4125 L154.0325,114.4825 C153.3975,113.845 153.34,112.78375 153.91,112.1225 C154.485,111.45875 155.4725,111.43625 156.10875,112.0725 L182.24,138.12875 C183.3125,138.415 184.43875,138.555 185.59625,138.50875 C188.935,138.37375 191.905,136.79875 194.0075,134.3575 L195.05875,133.14 C197.1625,130.70375 198.4025,127.40375 198.27625,123.815 C198.14875,120.2275 196.68625,117.04 194.41875,114.7775 L187.4425,107.8225 L189.205,109.5775 L208.0675,92.545 C208.86875,91.825 209.45,90.81625 209.6625,89.63125 C209.87375,88.4475 209.6825,87.27875 209.19125,86.29 Z M63.85,114.46125 C62.08125,114.34625 60.46375,113.54875 59.2925,112.21375 C58.1225,110.8825 57.545,109.17375 57.6625,107.40125 C57.88625,103.9225 60.79875,101.19875 64.27625,101.19875 C64.42375,101.19875 64.57375,101.2025 64.72125,101.21125 C66.49,101.32875 68.1075,102.125 69.27875,103.46 C70.44875,104.79375 71.02625,106.50125 70.9125,108.27375 C70.67,111.9 67.51875,114.70625 63.85,114.46125 Z M75.15875,129.64875 C73.455,129.64875 71.835,129.00625 70.5975,127.835 C67.97125,125.3525 67.82875,121.16875 70.26625,118.52375 C70.3925,118.3925 72.9825,115.6525 74.225,114.345 L74.8775,113.65125 C76.145,112.31375 77.8575,111.57625 79.7,111.57625 C81.405,111.57625 83.02625,112.2225 84.26125,113.39625 C85.55,114.61375 86.28875,116.26 86.33625,118.035 C86.385,119.80375 85.74,121.49 84.5225,122.775 L82.675,124.72875 C82.28,125.14375 81.85625,125.5925 81.4225,126.05 C81.35375,126.1275 81.2775,126.205 81.21125,126.2775 C80.88875,126.61625 80.60375,126.91625 80.3825,127.1475 C80.25625,127.28375 80.13,127.42 80,127.5525 C79.9675,127.58625 79.9425,127.615 79.94,127.61875 C78.6825,128.92875 76.98125,129.64875 75.15875,129.64875 Z M89.98,143.68125 C88.71875,144.99125 87.0225,145.71125 85.20125,145.71125 C83.49625,145.71125 81.8725,145.065 80.63875,143.8925 C78.01375,141.41 77.87,137.2275 80.3,134.595 C80.3575,134.5325 81.87875,132.9225 83.6025,131.10375 L83.6025,131.1025 L84.8825,129.75125 C87.12375,127.37875 87.85875,126.6075 88.10625,126.33875 C88.135,126.3125 88.16875,126.28125 88.1925,126.25375 L88.1925,126.25375 L88.1975,126.25 C88.41375,126.01625 88.54,125.88625 88.54375,125.8825 C89.80875,124.545 91.52375,123.80625 93.3675,123.80625 C95.0725,123.80625 96.69,124.45125 97.92875,125.62375 C99.2175,126.84375 99.9525,128.49125 100.00125,130.26125 C100.05,132.0375 99.405,133.7225 98.1825,135.01375 C98.06375,135.13875 90.23625,143.40875 89.98,143.68125 Z M104.575,152.18125 C100.9225,151.93875 98.145,148.77125 98.38625,145.12125 C98.615,141.64 101.51625,138.91625 104.99875,138.91625 C105.14625,138.91625 105.29625,138.92125 105.44375,138.93 C109.095,139.17 111.8725,142.3375 111.635,145.98875 C111.395,149.6125 108.24875,152.4225 104.575,152.18125 Z M185.73125,106.1175 L134.06375,54.605 L134.06375,54.605 L134.64625,53.13375 C134.9475,52.36625 134.90875,51.46 134.4675,50.6975 C134.025,49.9375 133.285,49.495 132.51,49.45375 L128.67,49.22375 L128.67,49.22375 L124.475,48.975 L124.15625,53.9475 C124.1525,54.05125 123.32125,65.35875 117.555,75.575 C111.64375,86.05875 103.81125,89.67375 102.6175,89.90625 C101.28375,90.165 99.885,90.41125 98.7225,90.41125 C97.92375,90.41125 97.30875,90.29875 96.7825,90.0575 L94.82125,89.14875 C93.99875,88.7675 93.37125,88.0675 93.04,87.175 C92.7175,86.31375 92.72125,85.3725 93.04,84.51375 L112.69125,41.38625 L116.0325,39.185 L117.37875,38.6725 L117.37625,38.6725 L142.07375,29.2525 C143.62625,28.66125 145.2525,28.35125 146.90375,28.33625 L147.04125,28.335 C148.64375,28.335 150.23125,28.6125 151.75125,29.16 L180.515,39.4975 L205.04625,88.67875 L185.73125,106.1175 Z"></path>
                <path d="M213.68625,5.69625 L194.26875,15.3775 C191.47625,16.77375 189.21125,19.23375 188.14125,22.42875 C187.0725,25.625 187.40375,28.95125 188.7925,31.75 L214.21625,82.71875 C215.61,85.51 218.06875,87.77875 221.27,88.84375 C224.4625,89.91375 227.78875,89.5875 230.58625,88.1925 L250,78.50625 L213.68625,5.69625 Z M230.53625,78.53625 C227.9575,78.53625 225.86,76.445 225.86,73.8625 C225.86,71.2775 227.9575,69.18125 230.53625,69.18125 C233.12,69.18125 235.2175,71.2775 235.2175,73.8625 C235.2175,76.445 233.12,78.53625 230.53625,78.53625 Z"></path>
                <path d="M0,67.3925 L17.7525,79.86375 C20.3075,81.66125 23.54875,82.48 26.86875,81.89875 C30.19125,81.32 32.95875,79.4475 34.7525,76.89375 L67.49375,30.28625 C69.2925,27.7325 70.11125,24.4875 69.5325,21.17 C68.94875,17.84875 67.08375,15.07875 64.52625,13.28125 L46.77125,0.8125 L0,67.3925 Z M15.3125,65 C15.6975,62.445 18.08125,60.68625 20.6325,61.07 C23.19,61.45625 24.94625,63.84125 24.56375,66.395 C24.1775,68.9525 21.79625,70.71125 19.24,70.3225 C16.68375,69.94 14.92625,67.5575 15.3125,65 Z"></path>
            </g>
        </g>
    </g>
</svg>