<?xml version="1.0" encoding="UTF-8"?>
<svg width="250px" height="280px" viewBox="0 0 250 280" version="1.1" xmlns="http://www.w3.org/2000/svg" xmlns:xlink="http://www.w3.org/1999/xlink">
    <!-- Generator: Sketch 41.2 (35397) - http://www.bohemiancoding.com/sketch -->
    <title>people</title>
    <desc>Created with Sketch.</desc>
    <defs></defs>
    <g id="Symbols" stroke="none" stroke-width="1" fill="none" fill-rule="evenodd">
        <g id="people" fill="#FFFFFF">
            <g>
                <path d="M220.052631,167.578243 C219.333949,164.445812 217.591739,161.487781 214.839625,159.098667 C212.073888,156.726486 208.696759,155.295727 205.195309,154.76914 L176.293826,149.819016 L145.9166,245.860754 L130.455689,270.833333 L125,270.833333 L119.542608,270.833333 L105.905624,245.860754 L73.8834739,149.819016 L44.8046913,154.770833 C41.3032407,155.29742 37.9278152,156.726486 35.158672,159.100361 C32.4065591,161.489474 30.662646,164.447505 29.9473691,167.579937 L13.2575758,240.465684 L44.7416788,251.3276 C55.1932362,262.130254 84.4514657,270.07647 119.542608,270.833333 L125.000852,270.833333 L130.455689,270.833333 C165.546831,270.078163 194.801655,262.130254 205.256617,251.3276 L236.742424,240.465684 L220.052631,167.578243 Z M230.706439,164.215909 C229.907197,160.712121 227.969697,157.403409 224.909091,154.731061 C221.833333,152.077652 218.077652,150.477273 214.183712,149.888258 L151.581439,137.774621 L169.693182,149.795455 L141.100379,239.424242 L125,172.848485 L108.892045,239.426136 L80.3125,149.797348 L98.4166667,137.776515 L35.8143939,149.890152 C31.9204545,150.479167 28.1666667,152.077652 25.0871212,154.732955 C22.0265152,157.405303 20.0871212,160.714015 19.2916667,164.217803 L0.731060606,245.744318 L35.7443182,257.893939 C47.3674242,269.977273 79.905303,278.86553 118.929924,279.712121 L125,279.712121 L131.066288,279.712121 C170.090909,278.867424 202.625,269.977273 214.251894,257.893939 L249.267045,245.744318 L230.706439,164.215909 Z" id="Body"></path>
                <polygon id="Shape" points="125 146.876894 110.570076 152.043561 125 172.848485 139.433712 152.043561"></polygon>
                <path d="M179.046005,65.7496466 C179.046005,29.2215172 163.754943,0.59469697 125.243908,0.59469697 C86.7290699,0.59469697 71.4456153,29.2233869 71.4456153,65.7496466 C67.4174473,67.8156538 64.7719415,72.6637595 68.7278381,83.0536256 C70.7229034,88.27006 74.2394672,92.6413947 77.2235066,94.9298951 C88.1992182,121.793598 109.783579,142.532197 125.243908,142.532197 C140.704237,142.532197 162.2905,121.793598 173.260506,94.9298951 C176.248349,92.6413947 179.759208,88.2681903 181.759979,83.0536256 C185.715875,72.6618898 183.072271,67.8156538 179.046005,65.7496466 Z M173.798143,65.8251153 C173.798143,33.1685009 159.929173,7.57575758 124.999724,7.57575758 C90.0668248,7.57575758 76.2047549,33.1701723 76.2047549,65.8251153 C72.5512129,67.6721523 70.151743,72.0064206 73.7397352,81.2950938 C75.5492562,85.9586528 78.7387744,89.866682 81.4452936,91.9126305 C91.400247,115.929124 110.977229,134.469697 124.999724,134.469697 C139.022219,134.469697 158.600926,115.929124 168.550704,91.9126305 C171.260673,89.866682 174.445017,85.9569814 176.259713,81.2950938 C179.847705,72.0047491 177.44996,67.6721523 173.798143,65.8251153 Z" id="Head"></path>
            </g>
        </g>
    </g>
</svg>